<svg width="60" height="39" viewBox="0 0 60 39" fill="none" xmlns="http://www.w3.org/2000/svg">
<path d="M26.1074 1.74031L1.29028 29.7145C-1.63852 33.0167 0.741776 38.1818 5.18672 38.1818H54.821C55.8158 38.1827 56.7897 37.9007 57.6262 37.3696C58.4627 36.8385 59.1262 36.0809 59.5373 35.1874C59.9485 34.294 60.0898 33.3025 59.9444 32.3319C59.799 31.3612 59.373 30.4525 58.7174 29.7145L33.9003 1.74541C33.4146 1.19721 32.8156 0.757839 32.1436 0.456795C31.4715 0.15575 30.742 0 30.0039 0C29.2658 0 28.5362 0.15575 27.8641 0.456795C27.1921 0.757839 26.5931 1.19721 26.1074 1.74541V1.74031Z" fill="#BDBDBD"/>
</svg>
