<svg width="60" height="39" viewBox="0 0 60 39" fill="none" xmlns="http://www.w3.org/2000/svg">
<path d="M33.8926 36.4415L58.7097 8.4673C61.6385 5.16511 59.2582 7.56455e-06 54.8133 7.17596e-06L5.17899 2.83679e-06C4.18422 -0.000840298 3.21027 0.281161 2.37381 0.812232C1.53734 1.3433 0.873802 2.10094 0.462653 2.99439C0.0515052 3.88785 -0.0898256 4.87927 0.0555868 5.84992C0.201003 6.82057 0.626998 7.7293 1.28256 8.4673L26.0997 36.4364C26.5854 36.9846 27.1844 37.424 27.8564 37.725C28.5285 38.0261 29.258 38.1818 29.9961 38.1818C30.7342 38.1818 31.4638 38.0261 32.1359 37.725C32.8079 37.424 33.4069 36.9846 33.8926 36.4364L33.8926 36.4415Z" fill="#BDBDBD"/>
</svg>
