<svg width="50" height="50" viewBox="0 0 50 50" fill="none" xmlns="http://www.w3.org/2000/svg">
<path d="M25.5903 12.7967H19.1919V19.1951H12.7935V25.5935H19.1919V31.9918H25.5903V25.5935H31.9886V19.1951H25.5903V12.7967ZM50 44.4302L40.7576 35.1878C43.2913 31.5599 44.7885 27.1547 44.7885 22.3942C44.7885 10.0262 34.7591 0 22.3943 0C10.0295 0 0 10.0262 0 22.3942C0 34.7623 10.0262 44.7885 22.3943 44.7885C27.1547 44.7885 31.5631 43.2913 35.191 40.7576L44.4334 50L50 44.4302ZM22.3911 38.3934C13.5581 38.3934 6.39517 31.2335 6.39517 22.3975C6.39517 13.5613 13.5581 6.40154 22.3911 6.40154C31.2272 6.40154 38.387 13.5613 38.387 22.3975C38.3902 31.2335 31.2304 38.3934 22.3911 38.3934Z" fill="white"/>
</svg>
